exercise-05
…
boot.mean.sd.summary <- perm.dataset %>% 
  group_by(decade, .index) %>% 
  summarise (
    boot.mean = mean(runtimeMinutes),
    boot.sd = sd(runtimeMinutes),
    boot.se = boot.sd/sqrt(100))

`summarise()` has grouped output by 'decade'. You can override using the
`.groups` argument.

boot.mean.sd.summary

# A tibble: 6,000 × 5
# Groups:   decade [6]
   decade .index boot.mean boot.sd boot.se
   <chr>   <dbl>     <dbl>   <dbl>   <dbl>
 1 20s         1      93.7    25.4    2.54
 2 20s         2      95.8    26.8    2.68
 3 20s         3      96.6    25.1    2.51
 4 20s         4      93.0    23.7    2.37
 5 20s         5      95.7    26.2    2.62
 6 20s         6      98.4    27.4    2.74
 7 20s         7      93.9    23.5    2.35
 8 20s         8      96.7    27.4    2.74
 9 20s         9      97.2    26.1    2.61
10 20s        10      96.1    26.4    2.64
# ℹ 5,990 more rows
…
  # Previously
  across(a:b, mean, na.rm = TRUE)

  # Now
  across(a:b, \(x) mean(x, na.rm = TRUE))

sd.permuted <- perm.dataset %>% 
  group_by(.index) %>% 
  summarise(across(all_of(vars), sd, na.rm=T))

mean.permuted 

# A tibble: 200 × 6
   .index height weight   age zombies_killed years_of_education
    <dbl>  <dbl>  <dbl> <dbl>          <dbl>              <dbl>
 1      1   68.1   144.  20.2           3.48               2.86
 2      2   67.9   146.  19.9           3.24               2.78
 3      3   67.3   142.  20.1           2.82               2.82
 4      4   67.5   145.  20.1           2.82               2.76
 5      5   67.9   145.  20.1           2.82               3.08
 6      6   66.6   142.  19.3           3.1                2.98
 7      7   68.0   145.  20.4           3                  2.74
 8      8   68.5   147.  20.3           3.1                3.28
 9      9   67.1   140.  19.8           3.36               2.54
10     10   67.6   144.  20.2           2.74               3.04
# ℹ 190 more rows

sd.permuted

# A tibble: 200 × 6
   .index height weight   age zombies_killed years_of_education
    <dbl>  <dbl>  <dbl> <dbl>          <dbl>              <dbl>
 1      1   4.56   20.2  2.66           1.97               2.02
 2      2   3.88   18.7  2.50           1.53               1.37
 3      3   3.96   15.1  3.13           1.61               1.62
 4      4   4.85   19.9  3.14           1.67               1.41
 5      5   4.09   18.5  3.04           1.85               1.75
 6      6   4.42   18.3  2.89           1.72               1.63
 7      7   4.51   18.4  2.98           1.53               1.55
 8      8   4.20   17.8  2.97           1.58               2.08
 9      9   4.83   18.1  3.00           1.92               1.31
10     10   4.08   16.1  2.85           1.68               1.43
# ℹ 190 more rows
…
